{
  "configVersion": 2,
  "packages": [
    {
      "name": "archive",
      "rootUri": "file:///Users/andikaary/.pub-cache/hosted/pub.dev/archive-3.4.9",
      "packageUri": "lib/",
      "languageVersion": "2.12"
    },
    {
      "name": "args",
      "rootUri": "file:///Users/andikaary/.pub-cache/hosted/pub.dev/args-2.4.2",
      "packageUri": "lib/",
      "languageVersion": "2.19"
    },
    {
      "name": "async",
      "rootUri": "file:///Users/andikaary/.pub-cache/hosted/pub.dev/async-2.11.0",
      "packageUri": "lib/",
      "languageVersion": "2.18"
    },
    {
      "name": "boolean_selector",
      "rootUri": "file:///Users/andikaary/.pub-cache/hosted/pub.dev/boolean_selector-2.1.1",
      "packageUri": "lib/",
      "languageVersion": "2.17"
    },
    {
      "name": "characters",
      "rootUri": "file:///Users/andikaary/.pub-cache/hosted/pub.dev/characters-1.3.0",
      "packageUri": "lib/",
      "languageVersion": "2.12"
    },
    {
      "name": "checked_yaml",
      "rootUri": "file:///Users/andikaary/.pub-cache/hosted/pub.dev/checked_yaml-2.0.3",
      "packageUri": "lib/",
      "languageVersion": "2.19"
    },
    {
      "name": "cli_util",
      "rootUri": "file:///Users/andikaary/.pub-cache/hosted/pub.dev/cli_util-0.4.0",
      "packageUri": "lib/",
      "languageVersion": "2.19"
    },
    {
      "name": "clock",
      "rootUri": "file:///Users/andikaary/.pub-cache/hosted/pub.dev/clock-1.1.1",
      "packageUri": "lib/",
      "languageVersion": "2.12"
    },
    {
      "name": "collection",
      "rootUri": "file:///Users/andikaary/.pub-cache/hosted/pub.dev/collection-1.17.2",
      "packageUri": "lib/",
      "languageVersion": "2.18"
    },
    {
      "name": "convert",
      "rootUri": "file:///Users/andikaary/.pub-cache/hosted/pub.dev/convert-3.1.1",
      "packageUri": "lib/",
      "languageVersion": "2.18"
    },
    {
      "name": "crypto",
      "rootUri": "file:///Users/andikaary/.pub-cache/hosted/pub.dev/crypto-3.0.3",
      "packageUri": "lib/",
      "languageVersion": "2.19"
    },
    {
      "name": "csslib",
      "rootUri": "file:///Users/andikaary/.pub-cache/hosted/pub.dev/csslib-1.0.0",
      "packageUri": "lib/",
      "languageVersion": "2.19"
    },
    {
      "name": "cupertino_icons",
      "rootUri": "file:///Users/andikaary/.pub-cache/hosted/pub.dev/cupertino_icons-1.0.6",
      "packageUri": "lib/",
      "languageVersion": "2.19"
    },
    {
      "name": "fake_async",
      "rootUri": "file:///Users/andikaary/.pub-cache/hosted/pub.dev/fake_async-1.3.1",
      "packageUri": "lib/",
      "languageVersion": "2.12"
    },
    {
      "name": "ffi",
      "rootUri": "file:///Users/andikaary/.pub-cache/hosted/pub.dev/ffi-2.1.0",
      "packageUri": "lib/",
      "languageVersion": "3.0"
    },
    {
      "name": "file",
      "rootUri": "file:///Users/andikaary/.pub-cache/hosted/pub.dev/file-7.0.0",
      "packageUri": "lib/",
      "languageVersion": "3.0"
    },
    {
      "name": "flutter",
      "rootUri": "file:///Users/andikaary/flutter/packages/flutter",
      "packageUri": "lib/",
      "languageVersion": "3.0"
    },
    {
      "name": "flutter_launcher_icons",
      "rootUri": "file:///Users/andikaary/.pub-cache/hosted/pub.dev/flutter_launcher_icons-0.13.1",
      "packageUri": "lib/",
      "languageVersion": "2.18"
    },
    {
      "name": "flutter_lints",
      "rootUri": "file:///Users/andikaary/.pub-cache/hosted/pub.dev/flutter_lints-3.0.0",
      "packageUri": "lib/",
      "languageVersion": "3.0"
    },
    {
      "name": "flutter_native_splash",
      "rootUri": "file:///Users/andikaary/.pub-cache/hosted/pub.dev/flutter_native_splash-2.3.5",
      "packageUri": "lib/",
      "languageVersion": "2.19"
    },
    {
      "name": "flutter_test",
      "rootUri": "file:///Users/andikaary/flutter/packages/flutter_test",
      "packageUri": "lib/",
      "languageVersion": "3.0"
    },
    {
      "name": "flutter_web_plugins",
      "rootUri": "file:///Users/andikaary/flutter/packages/flutter_web_plugins",
      "packageUri": "lib/",
      "languageVersion": "3.0"
    },
    {
      "name": "font_awesome_flutter",
      "rootUri": "file:///Users/andikaary/.pub-cache/hosted/pub.dev/font_awesome_flutter-10.6.0",
      "packageUri": "lib/",
      "languageVersion": "3.0"
    },
    {
      "name": "get",
      "rootUri": "file:///Users/andikaary/.pub-cache/hosted/pub.dev/get-4.6.6",
      "packageUri": "lib/",
      "languageVersion": "2.15"
    },
    {
      "name": "graphs",
      "rootUri": "file:///Users/andikaary/.pub-cache/hosted/pub.dev/graphs-2.3.1",
      "packageUri": "lib/",
      "languageVersion": "2.18"
    },
    {
      "name": "html",
      "rootUri": "file:///Users/andikaary/.pub-cache/hosted/pub.dev/html-0.15.4",
      "packageUri": "lib/",
      "languageVersion": "2.19"
    },
    {
      "name": "http",
      "rootUri": "file:///Users/andikaary/.pub-cache/hosted/pub.dev/http-1.1.0",
      "packageUri": "lib/",
      "languageVersion": "3.0"
    },
    {
      "name": "http_parser",
      "rootUri": "file:///Users/andikaary/.pub-cache/hosted/pub.dev/http_parser-4.0.2",
      "packageUri": "lib/",
      "languageVersion": "2.12"
    },
    {
      "name": "image",
      "rootUri": "file:///Users/andikaary/.pub-cache/hosted/pub.dev/image-4.1.3",
      "packageUri": "lib/",
      "languageVersion": "2.15"
    },
    {
      "name": "js",
      "rootUri": "file:///Users/andikaary/.pub-cache/hosted/pub.dev/js-0.6.7",
      "packageUri": "lib/",
      "languageVersion": "2.19"
    },
    {
      "name": "json_annotation",
      "rootUri": "file:///Users/andikaary/.pub-cache/hosted/pub.dev/json_annotation-4.8.1",
      "packageUri": "lib/",
      "languageVersion": "2.19"
    },
    {
      "name": "lints",
      "rootUri": "file:///Users/andikaary/.pub-cache/hosted/pub.dev/lints-3.0.0",
      "packageUri": "lib/",
      "languageVersion": "3.0"
    },
    {
      "name": "matcher",
      "rootUri": "file:///Users/andikaary/.pub-cache/hosted/pub.dev/matcher-0.12.16",
      "packageUri": "lib/",
      "languageVersion": "2.18"
    },
    {
      "name": "material_color_utilities",
      "rootUri": "file:///Users/andikaary/.pub-cache/hosted/pub.dev/material_color_utilities-0.5.0",
      "packageUri": "lib/",
      "languageVersion": "2.17"
    },
    {
      "name": "meta",
      "rootUri": "file:///Users/andikaary/.pub-cache/hosted/pub.dev/meta-1.9.1",
      "packageUri": "lib/",
      "languageVersion": "2.12"
    },
    {
      "name": "path",
      "rootUri": "file:///Users/andikaary/.pub-cache/hosted/pub.dev/path-1.8.3",
      "packageUri": "lib/",
      "languageVersion": "2.12"
    },
    {
      "name": "path_provider_linux",
      "rootUri": "file:///Users/andikaary/.pub-cache/hosted/pub.dev/path_provider_linux-2.2.1",
      "packageUri": "lib/",
      "languageVersion": "2.19"
    },
    {
      "name": "path_provider_platform_interface",
      "rootUri": "file:///Users/andikaary/.pub-cache/hosted/pub.dev/path_provider_platform_interface-2.1.1",
      "packageUri": "lib/",
      "languageVersion": "2.19"
    },
    {
      "name": "path_provider_windows",
      "rootUri": "file:///Users/andikaary/.pub-cache/hosted/pub.dev/path_provider_windows-2.2.1",
      "packageUri": "lib/",
      "languageVersion": "2.19"
    },
    {
      "name": "petitparser",
      "rootUri": "file:///Users/andikaary/.pub-cache/hosted/pub.dev/petitparser-5.4.0",
      "packageUri": "lib/",
      "languageVersion": "2.19"
    },
    {
      "name": "platform",
      "rootUri": "file:///Users/andikaary/.pub-cache/hosted/pub.dev/platform-3.1.3",
      "packageUri": "lib/",
      "languageVersion": "2.19"
    },
    {
      "name": "plugin_platform_interface",
      "rootUri": "file:///Users/andikaary/.pub-cache/hosted/pub.dev/plugin_platform_interface-2.1.6",
      "packageUri": "lib/",
      "languageVersion": "2.19"
    },
    {
      "name": "pointycastle",
      "rootUri": "file:///Users/andikaary/.pub-cache/hosted/pub.dev/pointycastle-3.7.3",
      "packageUri": "lib/",
      "languageVersion": "2.14"
    },
    {
      "name": "rive",
      "rootUri": "file:///Users/andikaary/.pub-cache/hosted/pub.dev/rive-0.12.3",
      "packageUri": "lib/",
      "languageVersion": "2.17"
    },
    {
      "name": "rive_common",
      "rootUri": "file:///Users/andikaary/.pub-cache/hosted/pub.dev/rive_common-0.2.8",
      "packageUri": "lib/",
      "languageVersion": "2.17"
    },
    {
      "name": "shared_preferences",
      "rootUri": "file:///Users/andikaary/.pub-cache/hosted/pub.dev/shared_preferences-2.2.2",
      "packageUri": "lib/",
      "languageVersion": "2.19"
    },
    {
      "name": "shared_preferences_android",
      "rootUri": "file:///Users/andikaary/.pub-cache/hosted/pub.dev/shared_preferences_android-2.2.1",
      "packageUri": "lib/",
      "languageVersion": "2.19"
    },
    {
      "name": "shared_preferences_foundation",
      "rootUri": "file:///Users/andikaary/.pub-cache/hosted/pub.dev/shared_preferences_foundation-2.3.4",
      "packageUri": "lib/",
      "languageVersion": "2.19"
    },
    {
      "name": "shared_preferences_linux",
      "rootUri": "file:///Users/andikaary/.pub-cache/hosted/pub.dev/shared_preferences_linux-2.3.2",
      "packageUri": "lib/",
      "languageVersion": "2.19"
    },
    {
      "name": "shared_preferences_platform_interface",
      "rootUri": "file:///Users/andikaary/.pub-cache/hosted/pub.dev/shared_preferences_platform_interface-2.3.1",
      "packageUri": "lib/",
      "languageVersion": "2.19"
    },
    {
      "name": "shared_preferences_web",
      "rootUri": "file:///Users/andikaary/.pub-cache/hosted/pub.dev/shared_preferences_web-2.2.1",
      "packageUri": "lib/",
      "languageVersion": "2.19"
    },
    {
      "name": "shared_preferences_windows",
      "rootUri": "file:///Users/andikaary/.pub-cache/hosted/pub.dev/shared_preferences_windows-2.3.2",
      "packageUri": "lib/",
      "languageVersion": "2.19"
    },
    {
      "name": "sky_engine",
      "rootUri": "file:///Users/andikaary/flutter/bin/cache/pkg/sky_engine",
      "packageUri": "lib/",
      "languageVersion": "3.0"
    },
    {
      "name": "source_span",
      "rootUri": "file:///Users/andikaary/.pub-cache/hosted/pub.dev/source_span-1.10.0",
      "packageUri": "lib/",
      "languageVersion": "2.18"
    },
    {
      "name": "stack_trace",
      "rootUri": "file:///Users/andikaary/.pub-cache/hosted/pub.dev/stack_trace-1.11.0",
      "packageUri": "lib/",
      "languageVersion": "2.18"
    },
    {
      "name": "stream_channel",
      "rootUri": "file:///Users/andikaary/.pub-cache/hosted/pub.dev/stream_channel-2.1.1",
      "packageUri": "lib/",
      "languageVersion": "2.14"
    },
    {
      "name": "string_scanner",
      "rootUri": "file:///Users/andikaary/.pub-cache/hosted/pub.dev/string_scanner-1.2.0",
      "packageUri": "lib/",
      "languageVersion": "2.18"
    },
    {
      "name": "stylish_bottom_bar",
      "rootUri": "file:///Users/andikaary/.pub-cache/hosted/pub.dev/stylish_bottom_bar-1.0.3",
      "packageUri": "lib/",
      "languageVersion": "2.18"
    },
    {
      "name": "term_glyph",
      "rootUri": "file:///Users/andikaary/.pub-cache/hosted/pub.dev/term_glyph-1.2.1",
      "packageUri": "lib/",
      "languageVersion": "2.12"
    },
    {
      "name": "test_api",
      "rootUri": "file:///Users/andikaary/.pub-cache/hosted/pub.dev/test_api-0.6.0",
      "packageUri": "lib/",
      "languageVersion": "2.18"
    },
    {
      "name": "typed_data",
      "rootUri": "file:///Users/andikaary/.pub-cache/hosted/pub.dev/typed_data-1.3.2",
      "packageUri": "lib/",
      "languageVersion": "2.17"
    },
    {
      "name": "universal_io",
      "rootUri": "file:///Users/andikaary/.pub-cache/hosted/pub.dev/universal_io-2.2.2",
      "packageUri": "lib/",
      "languageVersion": "2.17"
    },
    {
      "name": "vector_math",
      "rootUri": "file:///Users/andikaary/.pub-cache/hosted/pub.dev/vector_math-2.1.4",
      "packageUri": "lib/",
      "languageVersion": "2.14"
    },
    {
      "name": "web",
      "rootUri": "file:///Users/andikaary/.pub-cache/hosted/pub.dev/web-0.1.4-beta",
      "packageUri": "lib/",
      "languageVersion": "3.1"
    },
    {
      "name": "win32",
      "rootUri": "file:///Users/andikaary/.pub-cache/hosted/pub.dev/win32-5.1.0",
      "packageUri": "lib/",
      "languageVersion": "3.1"
    },
    {
      "name": "xdg_directories",
      "rootUri": "file:///Users/andikaary/.pub-cache/hosted/pub.dev/xdg_directories-1.0.3",
      "packageUri": "lib/",
      "languageVersion": "2.19"
    },
    {
      "name": "xml",
      "rootUri": "file:///Users/andikaary/.pub-cache/hosted/pub.dev/xml-6.3.0",
      "packageUri": "lib/",
      "languageVersion": "2.19"
    },
    {
      "name": "yaml",
      "rootUri": "file:///Users/andikaary/.pub-cache/hosted/pub.dev/yaml-3.1.2",
      "packageUri": "lib/",
      "languageVersion": "2.19"
    },
    {
      "name": "ta_mobile_bitalent",
      "rootUri": "../",
      "packageUri": "lib/",
      "languageVersion": "3.1"
    }
  ],
  "generated": "2023-11-21T09:22:42.558723Z",
  "generator": "pub",
  "generatorVersion": "3.1.5"
}
